{
  "host": "localhost",
  "port": 3030,
  "public": "../public/",
  "paginate": {
    "default": 10,
    "max": 50
  },
  "authentication": {
    "entity": "user",
    "service": "users",
    "secret": "81zlz5cwa30BbOH9IzDGCxcpYak=",
    "authStrategies": [
      "jwt",
      "local"
    ],
    "jwtOptions": {
      "header": {
        "typ": "access"
      },
      "audience": "https://yourdomain.com",
      "issuer": "feathers",
      "algorithm": "HS256",
      "expiresIn": "1d"
    },
    "local": {
      "usernameField": "email",
      "passwordField": "password"
    },
    "oauth": {
      "redirect": "/",
      "github": {
        "key": "1cfa5b9ba525f8a7fc53",
        "secret": "8ecc6c3824c68745b42253bed8bb5120a29ce3ab"
      }
    }
  },
  "nedb": "../data"
}
